waveform.vcd
$date
	Tue Feb 25 16:28:13 2025
$end
$version
	Icarus Verilog
$end
$timescale
	1ps
$end
$scope module testbench $end
$var reg 1 ! clock $end
$var reg 1 " reset $end
$scope module uut $end
$var wire 2 # alu_control [1:0] $end
$var wire 32 $ alu_in_from_mux [31:0] $end
$var wire 4 % alu_op [3:0] $end
$var wire 32 & alu_out [31:0] $end
$var wire 1 ' branch_enable $end
$var wire 32 ( branch_target [31:0] $end
$var wire 1 ) clock $end
$var wire 1 * imm_enable $end
$var wire 32 + immediate [31:0] $end
$var wire 32 , instruction [31:0] $end
$var wire 32 - mem_data [31:0] $end
$var wire 1 . mem_or_alu $end
$var wire 1 / mem_read_enable $end
$var wire 1 0 mem_write_enable $end
$var wire 32 1 next_pro_con [31:0] $end
$var wire 32 2 pro_con [31:0] $end
$var wire 32 3 pro_con_plus [31:0] $end
$var wire 32 4 read_data_1 [31:0] $end
$var wire 32 5 read_data_2 [31:0] $end
$var wire 1 6 reg_write_enable $end
$var wire 1 7 reset $end
$var wire 32 8 write_data [31:0] $end
$var wire 1 9 zero $end
$scope module ProgramCounter $end
$var wire 1 ) clock $end
$var wire 32 : p_in [31:0] $end
$var wire 1 7 reset $end
$var reg 32 ; p_out [31:0] $end
$upscope $end
$scope module ProgramCounterPlus $end
$var wire 32 < from_pc [31:0] $end
$var wire 32 = next_pc [31:0] $end
$upscope $end
$scope module InstructionMemory $end
$var wire 32 > read_address [31:0] $end
$var reg 32 ? inst_out [31:0] $end
$upscope $end
$scope module ControlUnit $end
$var wire 7 @ opcode [6:0] $end
$var reg 2 A alu_control [1:0] $end
$var reg 1 B branch_enable $end
$var reg 1 C imm_enable $end
$var reg 1 D mem_or_alu $end
$var reg 1 E mem_read_enable $end
$var reg 1 F mem_write_enable $end
$var reg 1 G reg_write_enable $end
$upscope $end
$scope module RegisterFile $end
$var wire 1 ) clock $end
$var wire 5 H read_register_1 [4:0] $end
$var wire 5 I read_register_2 [4:0] $end
$var wire 1 6 register_write $end
$var wire 1 7 reset $end
$var wire 32 J write_data [31:0] $end
$var wire 5 K write_register [4:0] $end
$var integer 32 L i [31:0] $end
$var reg 32 M read_data_1 [31:0] $end
$var reg 32 N read_data_2 [31:0] $end
$upscope $end
$scope module ImmediateRegister $end
$var wire 32 O instruction [31:0] $end
$var reg 32 P imm_gen [31:0] $end
$upscope $end
$scope module AluControlUnit $end
$var wire 2 Q alu_control [1:0] $end
$var wire 3 R func3 [2:0] $end
$var wire 7 S func7 [6:0] $end
$var reg 4 T alu_con_out [3:0] $end
$upscope $end
$scope module MuxAluSel $end
$var wire 32 U in_1 [31:0] $end
$var wire 32 V in_2 [31:0] $end
$var wire 32 W mux_out [31:0] $end
$var wire 1 * sel $end
$upscope $end
$scope module AluUnit $end
$var wire 4 X alu_op [3:0] $end
$var wire 32 Y in_1 [31:0] $end
$var wire 32 Z in_2 [31:0] $end
$var reg 32 [ alu_out [31:0] $end
$var reg 1 \ zero $end
$upscope $end
$scope module DataMemory $end
$var wire 32 ] address [31:0] $end
$var wire 1 ) clock $end
$var wire 1 / mem_read_enable $end
$var wire 1 0 mem_write_enable $end
$var wire 1 7 reset $end
$var wire 32 ^ write_data [31:0] $end
$var integer 32 _ address_int [31:0] $end
$var integer 32 ` i [31:0] $end
$var reg 32 a read_data [31:0] $end
$upscope $end
$scope module MuxMemToReg $end
$var wire 32 b in_1 [31:0] $end
$var wire 32 c in_2 [31:0] $end
$var wire 32 d mux_out [31:0] $end
$var wire 1 . sel $end
$upscope $end
$scope module Adder $end
$var wire 32 e adder_out [31:0] $end
$var wire 32 f in_1 [31:0] $end
$var wire 32 g in_2 [31:0] $end
$upscope $end
$scope module MuxPC $end
$var wire 32 h in_1 [31:0] $end
$var wire 32 i in_2 [31:0] $end
$var wire 32 j mux_out [31:0] $end
$var wire 1 k sel $end
$upscope $end
$upscope $end
$upscope $end
$enddefinitions $end
#0
$dumpvars
0k
b1 j
b10 i
b1 h
b10 g
b0 f
b10 e
b0 d
b0 c
b10 b
b0 a
b10000000000 `
b10 _
b0 ^
b10 ]
0\
b10 [
b10 Z
b0 Y
b10 X
b10 W
b10 V
b0 U
b10 T
b0 S
b10 R
b0 Q
b10 P
b1000000010000110000011 O
b0 N
b0 M
b100000 L
b11 K
b0 J
b10 I
b0 H
1G
0F
1E
1D
1C
0B
b0 A
b11 @
b1000000010000110000011 ?
b0 >
b1 =
b0 <
b0 ;
b1 :
09
b0 8
17
16
b0 5
b0 4
b1 3
b0 2
b1 1
00
1/
1.
b0 -
b1000000010000110000011 ,
b10 +
1*
0)
b10 (
0'
b10 &
b10 %
b10 $
b0 #
1"
0!
$end
#5000
b10000000000 `
b100000 L
1!
1)
#10000
0!
0)
0"
07
#15000
bx 8
bx J
bx d
bx _
x\
x9
bx [
bx &
bx ]
bx b
bx N
bx 5
bx U
bx ^
bx M
bx 4
bx Y
0G
06
0C
0*
0D
0.
0E
0/
bx $
bx W
bx Z
b10 1
b10 :
b10 j
bx S
bx R
bx K
bx I
bx H
bx @
b0 P
b0 +
b0 V
b0 g
b10 3
b10 =
b10 h
bx ?
bx ,
bx O
b1 ;
b1 (
b1 e
b1 i
b1 2
b1 <
b1 >
b1 f
1!
1)
#20000
0!
0)
#25000
b11 1
b11 :
b11 j
b11 3
b11 =
b11 h
b10 ;
b10 (
b10 e
b10 i
b10 2
b10 <
b10 >
b10 f
1!
1)
#30000
0!
0)
#35000
b100 1
b100 :
b100 j
b100 3
b100 =
b100 h
b11 ;
b11 (
b11 e
b11 i
b11 2
b11 <
b11 >
b11 f
1!
1)
#40000
0!
0)
#45000
b101 1
b101 :
b101 j
b101 3
b101 =
b101 h
b100 ;
b100 (
b100 e
b100 i
b100 2
b100 <
b100 >
b100 f
1!
1)
#50000
0!
0)
#55000
b110 1
b110 :
b110 j
b110 3
b110 =
b110 h
b101 ;
b101 (
b101 e
b101 i
b101 2
b101 <
b101 >
b101 f
1!
1)
#60000
0!
0)
#65000
b111 1
b111 :
b111 j
b111 3
b111 =
b111 h
b110 ;
b110 (
b110 e
b110 i
b110 2
b110 <
b110 >
b110 f
1!
1)
#70000
0!
0)
#75000
b1000 1
b1000 :
b1000 j
b1000 3
b1000 =
b1000 h
b111 ;
b111 (
b111 e
b111 i
b111 2
b111 <
b111 >
b111 f
1!
1)
#80000
0!
0)
#85000
b1001 1
b1001 :
b1001 j
b1001 3
b1001 =
b1001 h
b1000 ;
b1000 (
b1000 e
b1000 i
b1000 2
b1000 <
b1000 >
b1000 f
1!
1)
#90000
0!
0)
#95000
b1010 1
b1010 :
b1010 j
b1010 3
b1010 =
b1010 h
b1001 ;
b1001 (
b1001 e
b1001 i
b1001 2
b1001 <
b1001 >
b1001 f
1!
1)
#100000
0!
0)
#105000
b1011 1
b1011 :
b1011 j
b1011 3
b1011 =
b1011 h
b1010 ;
b1010 (
b1010 e
b1010 i
b1010 2
b1010 <
b1010 >
b1010 f
1!
1)
#110000
0!
0)
#115000
b1100 1
b1100 :
b1100 j
b1100 3
b1100 =
b1100 h
b1011 ;
b1011 (
b1011 e
b1011 i
b1011 2
b1011 <
b1011 >
b1011 f
1!
1)
#120000
0!
0)
#125000
b1101 1
b1101 :
b1101 j
b1101 3
b1101 =
b1101 h
b1100 ;
b1100 (
b1100 e
b1100 i
b1100 2
b1100 <
b1100 >
b1100 f
1!
1)
#130000
0!
0)
#135000
b1110 1
b1110 :
b1110 j
b1110 3
b1110 =
b1110 h
b1101 ;
b1101 (
b1101 e
b1101 i
b1101 2
b1101 <
b1101 >
b1101 f
1!
1)
#140000
0!
0)
#145000
b1111 1
b1111 :
b1111 j
b1111 3
b1111 =
b1111 h
b1110 ;
b1110 (
b1110 e
b1110 i
b1110 2
b1110 <
b1110 >
b1110 f
1!
1)
#150000
0!
0)
#155000
b10000 1
b10000 :
b10000 j
b10000 3
b10000 =
b10000 h
b1111 ;
b1111 (
b1111 e
b1111 i
b1111 2
b1111 <
b1111 >
b1111 f
1!
1)
#160000
0!
0)
#165000
b10001 1
b10001 :
b10001 j
b10001 3
b10001 =
b10001 h
b10000 ;
b10000 (
b10000 e
b10000 i
b10000 2
b10000 <
b10000 >
b10000 f
1!
1)
#170000
0!
0)
#175000
b10010 1
b10010 :
b10010 j
b10010 3
b10010 =
b10010 h
b10001 ;
b10001 (
b10001 e
b10001 i
b10001 2
b10001 <
b10001 >
b10001 f
1!
1)
#180000
0!
0)
#185000
b10011 1
b10011 :
b10011 j
b10011 3
b10011 =
b10011 h
b10010 ;
b10010 (
b10010 e
b10010 i
b10010 2
b10010 <
b10010 >
b10010 f
1!
1)
#190000
0!
0)
#195000
b10100 1
b10100 :
b10100 j
b10100 3
b10100 =
b10100 h
b10011 ;
b10011 (
b10011 e
b10011 i
b10011 2
b10011 <
b10011 >
b10011 f
1!
1)
#200000
0!
0)
#205000
b10101 1
b10101 :
b10101 j
b10101 3
b10101 =
b10101 h
b10100 ;
b10100 (
b10100 e
b10100 i
b10100 2
b10100 <
b10100 >
b10100 f
1!
1)
